{
  "subject": "[DevTeam] Test Email",
  "to": {
    "name": "Balazs Nadasdi",
    "email": "yitsushi@gmail.com"
  },
  "from": {
    "name": "ShoppingAll Dev Team",
    "email": "dev@shopping-all.hu"
  },
  "html": "<h1>Just a test</h1>"
}
